('/Users/hendrik_elsner/Documents/magic/dist/timagic',
 None,
 False,
 [('timagic', '/Users/hendrik_elsner/Documents/magic/build/timagic/timagic', 'EXECUTABLE'), ('_struct.so', '/System/Library/Frameworks/Python.framework/Versions/2.7/lib/python2.7/lib-dynload/_struct.so', 'EXTENSION'), ('_Evt', '/System/Library/Frameworks/Python.framework/Versions/2.7/lib/python2.7/lib-dynload/_Evt.so', 'EXTENSION'), ('datetime', '/System/Library/Frameworks/Python.framework/Versions/2.7/lib/python2.7/lib-dynload/datetime.so', 'EXTENSION'), ('_codecs_tw', '/System/Library/Frameworks/Python.framework/Versions/2.7/lib/python2.7/lib-dynload/_codecs_tw.so', 'EXTENSION'), ('_Res', '/System/Library/Frameworks/Python.framework/Versions/2.7/lib/python2.7/lib-dynload/_Res.so', 'EXTENSION'), ('select', '/System/Library/Frameworks/Python.framework/Versions/2.7/lib/python2.7/lib-dynload/select.so', 'EXTENSION'), ('_heapq', '/System/Library/Frameworks/Python.framework/Versions/2.7/lib/python2.7/lib-dynload/_heapq.so', 'EXTENSION'), ('binascii', '/System/Library/Frameworks/Python.framework/Versions/2.7/lib/python2.7/lib-dynload/binascii.so', 'EXTENSION'), ('cPickle', '/System/Library/Frameworks/Python.framework/Versions/2.7/lib/python2.7/lib-dynload/cPickle.so', 'EXTENSION'), ('_Qd', '/System/Library/Frameworks/Python.framework/Versions/2.7/lib/python2.7/lib-dynload/_Qd.so', 'EXTENSION'), ('unicodedata', '/System/Library/Frameworks/Python.framework/Versions/2.7/lib/python2.7/lib-dynload/unicodedata.so', 'EXTENSION'), ('_File', '/System/Library/Frameworks/Python.framework/Versions/2.7/lib/python2.7/lib-dynload/_File.so', 'EXTENSION'), ('_bisect', '/System/Library/Frameworks/Python.framework/Versions/2.7/lib/python2.7/lib-dynload/_bisect.so', 'EXTENSION'), ('strop', '/System/Library/Frameworks/Python.framework/Versions/2.7/lib/python2.7/lib-dynload/strop.so', 'EXTENSION'), ('_AE', '/System/Library/Frameworks/Python.framework/Versions/2.7/lib/python2.7/lib-dynload/_AE.so', 'EXTENSION'), ('_codecs_iso2022', '/System/Library/Frameworks/Python.framework/Versions/2.7/lib/python2.7/lib-dynload/_codecs_iso2022.so', 'EXTENSION'), ('cStringIO', '/System/Library/Frameworks/Python.framework/Versions/2.7/lib/python2.7/lib-dynload/cStringIO.so', 'EXTENSION'), ('math', '/System/Library/Frameworks/Python.framework/Versions/2.7/lib/python2.7/lib-dynload/math.so', 'EXTENSION'), ('_Win', '/System/Library/Frameworks/Python.framework/Versions/2.7/lib/python2.7/lib-dynload/_Win.so', 'EXTENSION'), ('_scproxy', '/System/Library/Frameworks/Python.framework/Versions/2.7/lib/python2.7/lib-dynload/_scproxy.so', 'EXTENSION'), ('_locale', '/System/Library/Frameworks/Python.framework/Versions/2.7/lib/python2.7/lib-dynload/_locale.so', 'EXTENSION'), ('PySide.QtCore', '/Library/Python/2.7/site-packages/PySide/QtCore.so', 'EXTENSION'), ('_collections', '/System/Library/Frameworks/Python.framework/Versions/2.7/lib/python2.7/lib-dynload/_collections.so', 'EXTENSION'), ('array', '/System/Library/Frameworks/Python.framework/Versions/2.7/lib/python2.7/lib-dynload/array.so', 'EXTENSION'), ('_codecs_hk', '/System/Library/Frameworks/Python.framework/Versions/2.7/lib/python2.7/lib-dynload/_codecs_hk.so', 'EXTENSION'), ('_hashlib', '/System/Library/Frameworks/Python.framework/Versions/2.7/lib/python2.7/lib-dynload/_hashlib.so', 'EXTENSION'), ('bz2', '/System/Library/Frameworks/Python.framework/Versions/2.7/lib/python2.7/lib-dynload/bz2.so', 'EXTENSION'), ('_ssl', '/System/Library/Frameworks/Python.framework/Versions/2.7/lib/python2.7/lib-dynload/_ssl.so', 'EXTENSION'), ('_io', '/System/Library/Frameworks/Python.framework/Versions/2.7/lib/python2.7/lib-dynload/_io.so', 'EXTENSION'), ('_Dlg', '/System/Library/Frameworks/Python.framework/Versions/2.7/lib/python2.7/lib-dynload/_Dlg.so', 'EXTENSION'), ('fcntl', '/System/Library/Frameworks/Python.framework/Versions/2.7/lib/python2.7/lib-dynload/fcntl.so', 'EXTENSION'), ('_ctypes', '/System/Library/Frameworks/Python.framework/Versions/2.7/lib/python2.7/lib-dynload/_ctypes.so', 'EXTENSION'), ('_Ctl', '/System/Library/Frameworks/Python.framework/Versions/2.7/lib/python2.7/lib-dynload/_Ctl.so', 'EXTENSION'), ('itertools', '/System/Library/Frameworks/Python.framework/Versions/2.7/lib/python2.7/lib-dynload/itertools.so', 'EXTENSION'), ('termios', '/System/Library/Frameworks/Python.framework/Versions/2.7/lib/python2.7/lib-dynload/termios.so', 'EXTENSION'), ('_codecs_kr', '/System/Library/Frameworks/Python.framework/Versions/2.7/lib/python2.7/lib-dynload/_codecs_kr.so', 'EXTENSION'), ('zlib', '/System/Library/Frameworks/Python.framework/Versions/2.7/lib/python2.7/lib-dynload/zlib.so', 'EXTENSION'), ('Nav', '/System/Library/Frameworks/Python.framework/Versions/2.7/lib/python2.7/lib-dynload/Nav.so', 'EXTENSION'), ('pyexpat', '/System/Library/Frameworks/Python.framework/Versions/2.7/lib/python2.7/lib-dynload/pyexpat.so', 'EXTENSION'), ('audioop', '/System/Library/Frameworks/Python.framework/Versions/2.7/lib/python2.7/lib-dynload/audioop.so', 'EXTENSION'), ('mmap', '/System/Library/Frameworks/Python.framework/Versions/2.7/lib/python2.7/lib-dynload/mmap.so', 'EXTENSION'), ('MacOS', '/System/Library/Frameworks/Python.framework/Versions/2.7/lib/python2.7/lib-dynload/MacOS.so', 'EXTENSION'), ('PySide.QtGui', '/Library/Python/2.7/site-packages/PySide/QtGui.so', 'EXTENSION'), ('_multiprocessing', '/System/Library/Frameworks/Python.framework/Versions/2.7/lib/python2.7/lib-dynload/_multiprocessing.so', 'EXTENSION'), ('_functools', '/System/Library/Frameworks/Python.framework/Versions/2.7/lib/python2.7/lib-dynload/_functools.so', 'EXTENSION'), ('_multibytecodec', '/System/Library/Frameworks/Python.framework/Versions/2.7/lib/python2.7/lib-dynload/_multibytecodec.so', 'EXTENSION'), ('operator', '/System/Library/Frameworks/Python.framework/Versions/2.7/lib/python2.7/lib-dynload/operator.so', 'EXTENSION'), ('_codecs_jp', '/System/Library/Frameworks/Python.framework/Versions/2.7/lib/python2.7/lib-dynload/_codecs_jp.so', 'EXTENSION'), ('_socket', '/System/Library/Frameworks/Python.framework/Versions/2.7/lib/python2.7/lib-dynload/_socket.so', 'EXTENSION'), ('_codecs_cn', '/System/Library/Frameworks/Python.framework/Versions/2.7/lib/python2.7/lib-dynload/_codecs_cn.so', 'EXTENSION'), ('gestalt', '/System/Library/Frameworks/Python.framework/Versions/2.7/lib/python2.7/lib-dynload/gestalt.so', 'EXTENSION'), ('_struct', '/System/Library/Frameworks/Python.framework/Versions/2.7/lib/python2.7/lib-dynload/_struct.so', 'EXTENSION'), ('_random', '/System/Library/Frameworks/Python.framework/Versions/2.7/lib/python2.7/lib-dynload/_random.so', 'EXTENSION'), ('_Menu', '/System/Library/Frameworks/Python.framework/Versions/2.7/lib/python2.7/lib-dynload/_Menu.so', 'EXTENSION'), ('grp', '/System/Library/Frameworks/Python.framework/Versions/2.7/lib/python2.7/lib-dynload/grp.so', 'EXTENSION'), ('readline', '/System/Library/Frameworks/Python.framework/Versions/2.7/lib/python2.7/lib-dynload/readline.so', 'EXTENSION'), ('time', '/System/Library/Frameworks/Python.framework/Versions/2.7/lib/python2.7/lib-dynload/time.so', 'EXTENSION'), ('QtCore', '/Library/Frameworks/QtCore.framework/Versions/4/QtCore', 'BINARY'), ('QtGui', '/Library/Frameworks/QtGui.framework/Versions/4/QtGui', 'BINARY'), ('Python', '/System/Library/Frameworks/Python.framework/Versions/2.7/Python', 'BINARY'), ('include/python2.7/pyconfig.h', '/System/Library/Frameworks/Python.framework/Versions/2.7/include/python2.7/pyconfig.h', 'DATA'), ('lib/python2.7/config/Makefile', '/System/Library/Frameworks/Python.framework/Versions/2.7/lib/python2.7/config/Makefile', 'DATA'), ('qt_menu.nib/classes.nib', '/Library/Frameworks/QtGui.framework/Resources/qt_menu.nib/classes.nib', 'DATA'), ('qt_menu.nib/info.nib', '/Library/Frameworks/QtGui.framework/Resources/qt_menu.nib/info.nib', 'DATA'), ('qt_menu.nib/keyedobjects.nib', '/Library/Frameworks/QtGui.framework/Resources/qt_menu.nib/keyedobjects.nib', 'DATA'), ('timagic_settings.xml', 'timagic_settings.xml', 'DATA')])
