(['/Library/Python/2.7/site-packages/PyInstaller/loader/_pyi_bootstrap.py',
  '/Library/Python/2.7/site-packages/PyInstaller/loader/pyi_importers.py',
  '/Library/Python/2.7/site-packages/PyInstaller/loader/pyi_archive.py',
  '/Library/Python/2.7/site-packages/PyInstaller/loader/pyi_carchive.py',
  '/Library/Python/2.7/site-packages/PyInstaller/loader/pyi_os_path.py',
  'timagic.py'],
 ['/Users/hendrik_elsner/Documents/magic'],
 None,
 None,
 [('_pyi_bootstrap', '/Library/Python/2.7/site-packages/PyInstaller/loader/_pyi_bootstrap.py', 'PYSOURCE'), ('pyi_importers', '/Library/Python/2.7/site-packages/PyInstaller/loader/pyi_importers.py', 'PYSOURCE'), ('pyi_archive', '/Library/Python/2.7/site-packages/PyInstaller/loader/pyi_archive.py', 'PYSOURCE'), ('pyi_carchive', '/Library/Python/2.7/site-packages/PyInstaller/loader/pyi_carchive.py', 'PYSOURCE'), ('pyi_os_path', '/Library/Python/2.7/site-packages/PyInstaller/loader/pyi_os_path.py', 'PYSOURCE'), ('timagic', 'timagic.py', 'PYSOURCE')],
 [('encodings.cp932', '/System/Library/Frameworks/Python.framework/Versions/2.7/lib/python2.7/encodings/cp932.pyc', 'PYMODULE'), ('Finder.Legacy_suite', '/System/Library/Frameworks/Python.framework/Versions/2.7/lib/python2.7/plat-mac/lib-scriptpackages/Finder/Legacy_suite.pyc', 'PYMODULE'), ('ui_timagic', '/Users/hendrik_elsner/Documents/magic/ui_timagic.pyc', 'PYMODULE'), ('xml.sax.expatreader', '/Users/hendrik_elsner/Documents/magic/build/timagic/localpycos/xml/sax/expatreader.pyc', 'PYMODULE'), ('distutils.sysconfig', '/System/Library/Frameworks/Python.framework/Versions/2.7/lib/python2.7/distutils/sysconfig.pyc', 'PYMODULE'), ('pyi_archive', '/Library/Python/2.7/site-packages/PyInstaller/loader/pyi_archive.pyc', 'PYMODULE'), ('encodings.big5', '/System/Library/Frameworks/Python.framework/Versions/2.7/lib/python2.7/encodings/big5.pyc', 'PYMODULE'), ('encodings.cp1140', '/System/Library/Frameworks/Python.framework/Versions/2.7/lib/python2.7/encodings/cp1140.pyc', 'PYMODULE'), ('pprint', '/System/Library/Frameworks/Python.framework/Versions/2.7/lib/python2.7/pprint.pyc', 'PYMODULE'), ('encodings.euc_jis_2004', '/System/Library/Frameworks/Python.framework/Versions/2.7/lib/python2.7/encodings/euc_jis_2004.pyc', 'PYMODULE'), ('encodings.utf_7', '/System/Library/Frameworks/Python.framework/Versions/2.7/lib/python2.7/encodings/utf_7.pyc', 'PYMODULE'), ('string', '/System/Library/Frameworks/Python.framework/Versions/2.7/lib/python2.7/string.pyc', 'PYMODULE'), ('SocketServer', '/System/Library/Frameworks/Python.framework/Versions/2.7/lib/python2.7/SocketServer.pyc', 'PYMODULE'), ('StdSuites.QuickDraw_Graphics_Suppleme', '/System/Library/Frameworks/Python.framework/Versions/2.7/lib/python2.7/plat-mac/lib-scriptpackages/StdSuites/QuickDraw_Graphics_Suppleme.pyc', 'PYMODULE'), ('encodings.utf_8', '/System/Library/Frameworks/Python.framework/Versions/2.7/lib/python2.7/encodings/utf_8.pyc', 'PYMODULE'), ('email.quoprimime', '/System/Library/Frameworks/Python.framework/Versions/2.7/lib/python2.7/email/quoprimime.pyc', 'PYMODULE'), ('cmd', '/System/Library/Frameworks/Python.framework/Versions/2.7/lib/python2.7/cmd.pyc', 'PYMODULE'), ('os2emxpath', '/System/Library/Frameworks/Python.framework/Versions/2.7/lib/python2.7/os2emxpath.pyc', 'PYMODULE'), ('encodings.iso8859_9', '/System/Library/Frameworks/Python.framework/Versions/2.7/lib/python2.7/encodings/iso8859_9.pyc', 'PYMODULE'), ('encodings.iso8859_8', '/System/Library/Frameworks/Python.framework/Versions/2.7/lib/python2.7/encodings/iso8859_8.pyc', 'PYMODULE'), ('shlex', '/System/Library/Frameworks/Python.framework/Versions/2.7/lib/python2.7/shlex.pyc', 'PYMODULE'), ('multiprocessing.pool', '/System/Library/Frameworks/Python.framework/Versions/2.7/lib/python2.7/multiprocessing/pool.pyc', 'PYMODULE'), ('encodings.iso8859_3', '/System/Library/Frameworks/Python.framework/Versions/2.7/lib/python2.7/encodings/iso8859_3.pyc', 'PYMODULE'), ('encodings.iso8859_2', '/System/Library/Frameworks/Python.framework/Versions/2.7/lib/python2.7/encodings/iso8859_2.pyc', 'PYMODULE'), ('encodings.iso8859_1', '/System/Library/Frameworks/Python.framework/Versions/2.7/lib/python2.7/encodings/iso8859_1.pyc', 'PYMODULE'), ('encodings.iso8859_7', '/System/Library/Frameworks/Python.framework/Versions/2.7/lib/python2.7/encodings/iso8859_7.pyc', 'PYMODULE'), ('encodings.iso8859_6', '/System/Library/Frameworks/Python.framework/Versions/2.7/lib/python2.7/encodings/iso8859_6.pyc', 'PYMODULE'), ('dummy_threading', '/System/Library/Frameworks/Python.framework/Versions/2.7/lib/python2.7/dummy_threading.pyc', 'PYMODULE'), ('encodings.iso8859_4', '/System/Library/Frameworks/Python.framework/Versions/2.7/lib/python2.7/encodings/iso8859_4.pyc', 'PYMODULE'), ('StdSuites.Required_Suite', '/System/Library/Frameworks/Python.framework/Versions/2.7/lib/python2.7/plat-mac/lib-scriptpackages/StdSuites/Required_Suite.pyc', 'PYMODULE'), ('StdSuites.Text_Suite', '/System/Library/Frameworks/Python.framework/Versions/2.7/lib/python2.7/plat-mac/lib-scriptpackages/StdSuites/Text_Suite.pyc', 'PYMODULE'), ('encodings.gbk', '/System/Library/Frameworks/Python.framework/Versions/2.7/lib/python2.7/encodings/gbk.pyc', 'PYMODULE'), ('abc', '/System/Library/Frameworks/Python.framework/Versions/2.7/lib/python2.7/abc.pyc', 'PYMODULE'), ('bdb', '/System/Library/Frameworks/Python.framework/Versions/2.7/lib/python2.7/bdb.pyc', 'PYMODULE'), ('py_compile', '/System/Library/Frameworks/Python.framework/Versions/2.7/lib/python2.7/py_compile.pyc', 'PYMODULE'), ('encodings.palmos', '/System/Library/Frameworks/Python.framework/Versions/2.7/lib/python2.7/encodings/palmos.pyc', 'PYMODULE'), ('tarfile', '/Users/hendrik_elsner/Documents/magic/build/timagic/localpycos/tarfile.pyc', 'PYMODULE'), ('ntpath', '/System/Library/Frameworks/Python.framework/Versions/2.7/lib/python2.7/ntpath.pyc', 'PYMODULE'), ('Carbon.Dragconst', '/System/Library/Frameworks/Python.framework/Versions/2.7/lib/python2.7/plat-mac/Carbon/Dragconst.pyc', 'PYMODULE'), ('optparse', '/Users/hendrik_elsner/Documents/magic/build/timagic/localpycos/optparse.pyc', 'PYMODULE'), ('unittest.suite', '/System/Library/Frameworks/Python.framework/Versions/2.7/lib/python2.7/unittest/suite.pyc', 'PYMODULE'), ('encodings.iso2022_jp_1', '/System/Library/Frameworks/Python.framework/Versions/2.7/lib/python2.7/encodings/iso2022_jp_1.pyc', 'PYMODULE'), ('encodings.iso2022_jp_3', '/System/Library/Frameworks/Python.framework/Versions/2.7/lib/python2.7/encodings/iso2022_jp_3.pyc', 'PYMODULE'), ('encodings.iso2022_jp_2', '/System/Library/Frameworks/Python.framework/Versions/2.7/lib/python2.7/encodings/iso2022_jp_2.pyc', 'PYMODULE'), ('Carbon.Dialogs', '/System/Library/Frameworks/Python.framework/Versions/2.7/lib/python2.7/plat-mac/Carbon/Dialogs.pyc', 'PYMODULE'), ('codecs', '/System/Library/Frameworks/Python.framework/Versions/2.7/lib/python2.7/codecs.pyc', 'PYMODULE'), ('email.header', '/System/Library/Frameworks/Python.framework/Versions/2.7/lib/python2.7/email/header.pyc', 'PYMODULE'), ('StringIO', '/System/Library/Frameworks/Python.framework/Versions/2.7/lib/python2.7/StringIO.pyc', 'PYMODULE'), ('pydoc_data.topics', '/System/Library/Frameworks/Python.framework/Versions/2.7/lib/python2.7/pydoc_data/topics.pyc', 'PYMODULE'), ('weakref', '/System/Library/Frameworks/Python.framework/Versions/2.7/lib/python2.7/weakref.pyc', 'PYMODULE'), ('doctest', '/System/Library/Frameworks/Python.framework/Versions/2.7/lib/python2.7/doctest.pyc', 'PYMODULE'), ('aetypes', '/System/Library/Frameworks/Python.framework/Versions/2.7/lib/python2.7/plat-mac/aetypes.pyc', 'PYMODULE'), ('encodings.cp720', '/System/Library/Frameworks/Python.framework/Versions/2.7/lib/python2.7/encodings/cp720.pyc', 'PYMODULE'), ('base64', '/System/Library/Frameworks/Python.framework/Versions/2.7/lib/python2.7/base64.pyc', 'PYMODULE'), ('encodings.cp875', '/System/Library/Frameworks/Python.framework/Versions/2.7/lib/python2.7/encodings/cp875.pyc', 'PYMODULE'), ('encodings.cp874', '/System/Library/Frameworks/Python.framework/Versions/2.7/lib/python2.7/encodings/cp874.pyc', 'PYMODULE'), ('_builtinSuites.builtin_Suite', '/System/Library/Frameworks/Python.framework/Versions/2.7/lib/python2.7/plat-mac/lib-scriptpackages/_builtinSuites/builtin_Suite.pyc', 'PYMODULE'), ('email.charset', '/System/Library/Frameworks/Python.framework/Versions/2.7/lib/python2.7/email/charset.pyc', 'PYMODULE'), ('encodings.punycode', '/System/Library/Frameworks/Python.framework/Versions/2.7/lib/python2.7/encodings/punycode.pyc', 'PYMODULE'), ('encodings.cp1258', '/System/Library/Frameworks/Python.framework/Versions/2.7/lib/python2.7/encodings/cp1258.pyc', 'PYMODULE'), ('encodings.cp1257', '/System/Library/Frameworks/Python.framework/Versions/2.7/lib/python2.7/encodings/cp1257.pyc', 'PYMODULE'), ('encodings.latin_1', '/System/Library/Frameworks/Python.framework/Versions/2.7/lib/python2.7/encodings/latin_1.pyc', 'PYMODULE'), ('tokenize', '/System/Library/Frameworks/Python.framework/Versions/2.7/lib/python2.7/tokenize.pyc', 'PYMODULE'), ('Carbon', '/System/Library/Frameworks/Python.framework/Versions/2.7/lib/python2.7/plat-mac/Carbon/__init__.pyc', 'PYMODULE'), ('encodings.charmap', '/System/Library/Frameworks/Python.framework/Versions/2.7/lib/python2.7/encodings/charmap.pyc', 'PYMODULE'), ('StdSuites.AppleScript_Suite', '/System/Library/Frameworks/Python.framework/Versions/2.7/lib/python2.7/plat-mac/lib-scriptpackages/StdSuites/AppleScript_Suite.pyc', 'PYMODULE'), ('Carbon.Files', '/System/Library/Frameworks/Python.framework/Versions/2.7/lib/python2.7/plat-mac/Carbon/Files.pyc', 'PYMODULE'), ('webbrowser', '/System/Library/Frameworks/Python.framework/Versions/2.7/lib/python2.7/webbrowser.pyc', 'PYMODULE'), ('encodings.cp424', '/System/Library/Frameworks/Python.framework/Versions/2.7/lib/python2.7/encodings/cp424.pyc', 'PYMODULE'), ('aepack', '/System/Library/Frameworks/Python.framework/Versions/2.7/lib/python2.7/plat-mac/aepack.pyc', 'PYMODULE'), ('encodings.iso2022_kr', '/System/Library/Frameworks/Python.framework/Versions/2.7/lib/python2.7/encodings/iso2022_kr.pyc', 'PYMODULE'), ('encodings.aliases', '/System/Library/Frameworks/Python.framework/Versions/2.7/lib/python2.7/encodings/aliases.pyc', 'PYMODULE'), ('fnmatch', '/System/Library/Frameworks/Python.framework/Versions/2.7/lib/python2.7/fnmatch.pyc', 'PYMODULE'), ('sre_parse', '/System/Library/Frameworks/Python.framework/Versions/2.7/lib/python2.7/sre_parse.pyc', 'PYMODULE'), ('pickle', '/System/Library/Frameworks/Python.framework/Versions/2.7/lib/python2.7/pickle.pyc', 'PYMODULE'), ('encodings.hz', '/System/Library/Frameworks/Python.framework/Versions/2.7/lib/python2.7/encodings/hz.pyc', 'PYMODULE'), ('encodings.uu_codec', '/System/Library/Frameworks/Python.framework/Versions/2.7/lib/python2.7/encodings/uu_codec.pyc', 'PYMODULE'), ('encodings.utf_16', '/System/Library/Frameworks/Python.framework/Versions/2.7/lib/python2.7/encodings/utf_16.pyc', 'PYMODULE'), ('encodings.cp1256', '/System/Library/Frameworks/Python.framework/Versions/2.7/lib/python2.7/encodings/cp1256.pyc', 'PYMODULE'), ('encodings.cp1255', '/System/Library/Frameworks/Python.framework/Versions/2.7/lib/python2.7/encodings/cp1255.pyc', 'PYMODULE'), ('encodings.cp1254', '/System/Library/Frameworks/Python.framework/Versions/2.7/lib/python2.7/encodings/cp1254.pyc', 'PYMODULE'), ('encodings.cp1253', '/System/Library/Frameworks/Python.framework/Versions/2.7/lib/python2.7/encodings/cp1253.pyc', 'PYMODULE'), ('encodings.cp1252', '/System/Library/Frameworks/Python.framework/Versions/2.7/lib/python2.7/encodings/cp1252.pyc', 'PYMODULE'), ('encodings.cp1251', '/System/Library/Frameworks/Python.framework/Versions/2.7/lib/python2.7/encodings/cp1251.pyc', 'PYMODULE'), ('encodings.cp1250', '/System/Library/Frameworks/Python.framework/Versions/2.7/lib/python2.7/encodings/cp1250.pyc', 'PYMODULE'), ('email.message', '/Users/hendrik_elsner/Documents/magic/build/timagic/localpycos/email/message.pyc', 'PYMODULE'), ('shutil', '/System/Library/Frameworks/Python.framework/Versions/2.7/lib/python2.7/shutil.pyc', 'PYMODULE'), ('xmlrpclib', '/System/Library/Frameworks/Python.framework/Versions/2.7/lib/python2.7/xmlrpclib.pyc', 'PYMODULE'), ('encodings.shift_jis', '/System/Library/Frameworks/Python.framework/Versions/2.7/lib/python2.7/encodings/shift_jis.pyc', 'PYMODULE'), ('Finder.Finder_items', '/System/Library/Frameworks/Python.framework/Versions/2.7/lib/python2.7/plat-mac/lib-scriptpackages/Finder/Finder_items.pyc', 'PYMODULE'), ('encodings.shift_jisx0213', '/System/Library/Frameworks/Python.framework/Versions/2.7/lib/python2.7/encodings/shift_jisx0213.pyc', 'PYMODULE'), ('email.parser', '/System/Library/Frameworks/Python.framework/Versions/2.7/lib/python2.7/email/parser.pyc', 'PYMODULE'), ('Carbon.Events', '/System/Library/Frameworks/Python.framework/Versions/2.7/lib/python2.7/plat-mac/Carbon/Events.pyc', 'PYMODULE'), ('types', '/System/Library/Frameworks/Python.framework/Versions/2.7/lib/python2.7/types.pyc', 'PYMODULE'), ('email.base64mime', '/System/Library/Frameworks/Python.framework/Versions/2.7/lib/python2.7/email/base64mime.pyc', 'PYMODULE'), ('email.mime.multipart', '/System/Library/Frameworks/Python.framework/Versions/2.7/lib/python2.7/email/mime/multipart.pyc', 'PYMODULE'), ('email.generator', '/System/Library/Frameworks/Python.framework/Versions/2.7/lib/python2.7/email/generator.pyc', 'PYMODULE'), ('_weakrefset', '/System/Library/Frameworks/Python.framework/Versions/2.7/lib/python2.7/_weakrefset.pyc', 'PYMODULE'), ('tty', '/System/Library/Frameworks/Python.framework/Versions/2.7/lib/python2.7/tty.pyc', 'PYMODULE'), ('StdSuites', '/System/Library/Frameworks/Python.framework/Versions/2.7/lib/python2.7/plat-mac/lib-scriptpackages/StdSuites/__init__.pyc', 'PYMODULE'), ('functools', '/System/Library/Frameworks/Python.framework/Versions/2.7/lib/python2.7/functools.pyc', 'PYMODULE'), ('email.mime.text', '/System/Library/Frameworks/Python.framework/Versions/2.7/lib/python2.7/email/mime/text.pyc', 'PYMODULE'), ('tempfile', '/System/Library/Frameworks/Python.framework/Versions/2.7/lib/python2.7/tempfile.pyc', 'PYMODULE'), ('unittest.util', '/System/Library/Frameworks/Python.framework/Versions/2.7/lib/python2.7/unittest/util.pyc', 'PYMODULE'), ('encodings.base64_codec', '/System/Library/Frameworks/Python.framework/Versions/2.7/lib/python2.7/encodings/base64_codec.pyc', 'PYMODULE'), ('multiprocessing.sharedctypes', '/System/Library/Frameworks/Python.framework/Versions/2.7/lib/python2.7/multiprocessing/sharedctypes.pyc', 'PYMODULE'), ('httplib', '/System/Library/Frameworks/Python.framework/Versions/2.7/lib/python2.7/httplib.pyc', 'PYMODULE'), ('bisect', '/System/Library/Frameworks/Python.framework/Versions/2.7/lib/python2.7/bisect.pyc', 'PYMODULE'), ('token', '/System/Library/Frameworks/Python.framework/Versions/2.7/lib/python2.7/token.pyc', 'PYMODULE'), ('email.encoders', '/System/Library/Frameworks/Python.framework/Versions/2.7/lib/python2.7/email/encoders.pyc', 'PYMODULE'), ('Finder.Enumerations', '/System/Library/Frameworks/Python.framework/Versions/2.7/lib/python2.7/plat-mac/lib-scriptpackages/Finder/Enumerations.pyc', 'PYMODULE'), ('macostools', '/System/Library/Frameworks/Python.framework/Versions/2.7/lib/python2.7/plat-mac/macostools.pyc', 'PYMODULE'), ('chunk', '/System/Library/Frameworks/Python.framework/Versions/2.7/lib/python2.7/chunk.pyc', 'PYMODULE'), ('multiprocessing.process', '/System/Library/Frameworks/Python.framework/Versions/2.7/lib/python2.7/multiprocessing/process.pyc', 'PYMODULE'), ('StdSuites.Table_Suite', '/System/Library/Frameworks/Python.framework/Versions/2.7/lib/python2.7/plat-mac/lib-scriptpackages/StdSuites/Table_Suite.pyc', 'PYMODULE'), ('Finder.Window_classes', '/System/Library/Frameworks/Python.framework/Versions/2.7/lib/python2.7/plat-mac/lib-scriptpackages/Finder/Window_classes.pyc', 'PYMODULE'), ('encodings', '/System/Library/Frameworks/Python.framework/Versions/2.7/lib/python2.7/encodings/__init__.pyc', 'PYMODULE'), ('BaseHTTPServer', '/System/Library/Frameworks/Python.framework/Versions/2.7/lib/python2.7/BaseHTTPServer.pyc', 'PYMODULE'), ('Finder', '/System/Library/Frameworks/Python.framework/Versions/2.7/lib/python2.7/plat-mac/lib-scriptpackages/Finder/__init__.pyc', 'PYMODULE'), ('pydoc', '/System/Library/Frameworks/Python.framework/Versions/2.7/lib/python2.7/pydoc.pyc', 'PYMODULE'), ('Carbon.AE', '/System/Library/Frameworks/Python.framework/Versions/2.7/lib/python2.7/plat-mac/Carbon/AE.pyc', 'PYMODULE'), ('re', '/System/Library/Frameworks/Python.framework/Versions/2.7/lib/python2.7/re.pyc', 'PYMODULE'), ('Carbon.Windows', '/System/Library/Frameworks/Python.framework/Versions/2.7/lib/python2.7/plat-mac/Carbon/Windows.pyc', 'PYMODULE'), ('encodings.utf_8_sig', '/System/Library/Frameworks/Python.framework/Versions/2.7/lib/python2.7/encodings/utf_8_sig.pyc', 'PYMODULE'), ('aetools', '/System/Library/Frameworks/Python.framework/Versions/2.7/lib/python2.7/plat-mac/aetools.pyc', 'PYMODULE'), ('Finder.Finder_Basics', '/System/Library/Frameworks/Python.framework/Versions/2.7/lib/python2.7/plat-mac/lib-scriptpackages/Finder/Finder_Basics.pyc', 'PYMODULE'), ('Carbon.AppleEvents', '/System/Library/Frameworks/Python.framework/Versions/2.7/lib/python2.7/plat-mac/Carbon/AppleEvents.pyc', 'PYMODULE'), ('Carbon.Res', '/System/Library/Frameworks/Python.framework/Versions/2.7/lib/python2.7/plat-mac/Carbon/Res.pyc', 'PYMODULE'), ('logging', '/System/Library/Frameworks/Python.framework/Versions/2.7/lib/python2.7/logging/__init__.pyc', 'PYMODULE'), ('encodings.euc_jisx0213', '/System/Library/Frameworks/Python.framework/Versions/2.7/lib/python2.7/encodings/euc_jisx0213.pyc', 'PYMODULE'), ('traceback', '/System/Library/Frameworks/Python.framework/Versions/2.7/lib/python2.7/traceback.pyc', 'PYMODULE'), ('encodings.iso2022_jp_2004', '/System/Library/Frameworks/Python.framework/Versions/2.7/lib/python2.7/encodings/iso2022_jp_2004.pyc', 'PYMODULE'), ('multiprocessing', '/System/Library/Frameworks/Python.framework/Versions/2.7/lib/python2.7/multiprocessing/__init__.pyc', 'PYMODULE'), ('encodings.zlib_codec', '/System/Library/Frameworks/Python.framework/Versions/2.7/lib/python2.7/encodings/zlib_codec.pyc', 'PYMODULE'), ('encodings.iso8859_5', '/System/Library/Frameworks/Python.framework/Versions/2.7/lib/python2.7/encodings/iso8859_5.pyc', 'PYMODULE'), ('multiprocessing.util', '/System/Library/Frameworks/Python.framework/Versions/2.7/lib/python2.7/multiprocessing/util.pyc', 'PYMODULE'), ('dis', '/System/Library/Frameworks/Python.framework/Versions/2.7/lib/python2.7/dis.pyc', 'PYMODULE'), ('email.mime.image', '/System/Library/Frameworks/Python.framework/Versions/2.7/lib/python2.7/email/mime/image.pyc', 'PYMODULE'), ('applesingle', '/System/Library/Frameworks/Python.framework/Versions/2.7/lib/python2.7/plat-mac/applesingle.pyc', 'PYMODULE'), ('encodings.mac_centeuro', '/System/Library/Frameworks/Python.framework/Versions/2.7/lib/python2.7/encodings/mac_centeuro.pyc', 'PYMODULE'), ('_LWPCookieJar', '/System/Library/Frameworks/Python.framework/Versions/2.7/lib/python2.7/_LWPCookieJar.pyc', 'PYMODULE'), ('posixpath', '/System/Library/Frameworks/Python.framework/Versions/2.7/lib/python2.7/posixpath.pyc', 'PYMODULE'), ('encodings.cp737', '/System/Library/Frameworks/Python.framework/Versions/2.7/lib/python2.7/encodings/cp737.pyc', 'PYMODULE'), ('encodings.utf_16_be', '/System/Library/Frameworks/Python.framework/Versions/2.7/lib/python2.7/encodings/utf_16_be.pyc', 'PYMODULE'), ('Carbon.Win', '/System/Library/Frameworks/Python.framework/Versions/2.7/lib/python2.7/plat-mac/Carbon/Win.pyc', 'PYMODULE'), ('Carbon.Controls', '/System/Library/Frameworks/Python.framework/Versions/2.7/lib/python2.7/plat-mac/Carbon/Controls.pyc', 'PYMODULE'), ('email.feedparser', '/Users/hendrik_elsner/Documents/magic/build/timagic/localpycos/email/feedparser.pyc', 'PYMODULE'), ('_osx_support', '/System/Library/Frameworks/Python.framework/Versions/2.7/lib/python2.7/_osx_support.pyc', 'PYMODULE'), ('copy', '/System/Library/Frameworks/Python.framework/Versions/2.7/lib/python2.7/copy.pyc', 'PYMODULE'), ('Carbon.File', '/System/Library/Frameworks/Python.framework/Versions/2.7/lib/python2.7/plat-mac/Carbon/File.pyc', 'PYMODULE'), ('hashlib', '/System/Library/Frameworks/Python.framework/Versions/2.7/lib/python2.7/hashlib.pyc', 'PYMODULE'), ('keyword', '/System/Library/Frameworks/Python.framework/Versions/2.7/lib/python2.7/keyword.pyc', 'PYMODULE'), ('xml.sax.saxutils', '/System/Library/Frameworks/Python.framework/Versions/2.7/lib/python2.7/xml/sax/saxutils.pyc', 'PYMODULE'), ('stringprep', '/System/Library/Frameworks/Python.framework/Versions/2.7/lib/python2.7/stringprep.pyc', 'PYMODULE'), ('encodings.unicode_internal', '/System/Library/Frameworks/Python.framework/Versions/2.7/lib/python2.7/encodings/unicode_internal.pyc', 'PYMODULE'), ('encodings.mac_turkish', '/System/Library/Frameworks/Python.framework/Versions/2.7/lib/python2.7/encodings/mac_turkish.pyc', 'PYMODULE'), ('encodings.mac_cyrillic', '/System/Library/Frameworks/Python.framework/Versions/2.7/lib/python2.7/encodings/mac_cyrillic.pyc', 'PYMODULE'), ('encodings.euc_jp', '/System/Library/Frameworks/Python.framework/Versions/2.7/lib/python2.7/encodings/euc_jp.pyc', 'PYMODULE'), ('sre_compile', '/System/Library/Frameworks/Python.framework/Versions/2.7/lib/python2.7/sre_compile.pyc', 'PYMODULE'), ('Finder.Standard_Suite', '/System/Library/Frameworks/Python.framework/Versions/2.7/lib/python2.7/plat-mac/lib-scriptpackages/Finder/Standard_Suite.pyc', 'PYMODULE'), ('getpass', '/System/Library/Frameworks/Python.framework/Versions/2.7/lib/python2.7/getpass.pyc', 'PYMODULE'), ('encodings.string_escape', '/System/Library/Frameworks/Python.framework/Versions/2.7/lib/python2.7/encodings/string_escape.pyc', 'PYMODULE'), ('unittest.result', '/System/Library/Frameworks/Python.framework/Versions/2.7/lib/python2.7/unittest/result.pyc', 'PYMODULE'), ('encodings.quopri_codec', '/System/Library/Frameworks/Python.framework/Versions/2.7/lib/python2.7/encodings/quopri_codec.pyc', 'PYMODULE'), ('encodings.mac_latin2', '/System/Library/Frameworks/Python.framework/Versions/2.7/lib/python2.7/encodings/mac_latin2.pyc', 'PYMODULE'), ('encodings.cp869', '/System/Library/Frameworks/Python.framework/Versions/2.7/lib/python2.7/encodings/cp869.pyc', 'PYMODULE'), ('encodings.cp866', '/System/Library/Frameworks/Python.framework/Versions/2.7/lib/python2.7/encodings/cp866.pyc', 'PYMODULE'), ('encodings.cp864', '/System/Library/Frameworks/Python.framework/Versions/2.7/lib/python2.7/encodings/cp864.pyc', 'PYMODULE'), ('encodings.cp865', '/System/Library/Frameworks/Python.framework/Versions/2.7/lib/python2.7/encodings/cp865.pyc', 'PYMODULE'), ('encodings.cp949', '/System/Library/Frameworks/Python.framework/Versions/2.7/lib/python2.7/encodings/cp949.pyc', 'PYMODULE'), ('encodings.cp863', '/System/Library/Frameworks/Python.framework/Versions/2.7/lib/python2.7/encodings/cp863.pyc', 'PYMODULE'), ('encodings.cp860', '/System/Library/Frameworks/Python.framework/Versions/2.7/lib/python2.7/encodings/cp860.pyc', 'PYMODULE'), ('encodings.cp861', '/System/Library/Frameworks/Python.framework/Versions/2.7/lib/python2.7/encodings/cp861.pyc', 'PYMODULE'), ('warnings', '/System/Library/Frameworks/Python.framework/Versions/2.7/lib/python2.7/warnings.pyc', 'PYMODULE'), ('glob', '/System/Library/Frameworks/Python.framework/Versions/2.7/lib/python2.7/glob.pyc', 'PYMODULE'), ('pyi_importers', '/Library/Python/2.7/site-packages/PyInstaller/loader/pyi_importers.pyc', 'PYMODULE'), ('plistlib', '/System/Library/Frameworks/Python.framework/Versions/2.7/lib/python2.7/plistlib.pyc', 'PYMODULE'), ('xml.parsers', '/System/Library/Frameworks/Python.framework/Versions/2.7/lib/python2.7/xml/parsers/__init__.pyc', 'PYMODULE'), ('linecache', '/System/Library/Frameworks/Python.framework/Versions/2.7/lib/python2.7/linecache.pyc', 'PYMODULE'), ('encodings.rot_13', '/System/Library/Frameworks/Python.framework/Versions/2.7/lib/python2.7/encodings/rot_13.pyc', 'PYMODULE'), ('hmac', '/System/Library/Frameworks/Python.framework/Versions/2.7/lib/python2.7/hmac.pyc', 'PYMODULE'), ('email.iterators', '/System/Library/Frameworks/Python.framework/Versions/2.7/lib/python2.7/email/iterators.pyc', 'PYMODULE'), ('random', '/System/Library/Frameworks/Python.framework/Versions/2.7/lib/python2.7/random.pyc', 'PYMODULE'), ('subprocess', '/System/Library/Frameworks/Python.framework/Versions/2.7/lib/python2.7/subprocess.pyc', 'PYMODULE'), ('ctypes._endian', '/System/Library/Frameworks/Python.framework/Versions/2.7/lib/python2.7/ctypes/_endian.pyc', 'PYMODULE'), ('encodings.iso2022_jp_ext', '/System/Library/Frameworks/Python.framework/Versions/2.7/lib/python2.7/encodings/iso2022_jp_ext.pyc', 'PYMODULE'), ('xml', '/System/Library/Frameworks/Python.framework/Versions/2.7/lib/python2.7/xml/__init__.pyc', 'PYMODULE'), ('encodings.cp775', '/System/Library/Frameworks/Python.framework/Versions/2.7/lib/python2.7/encodings/cp775.pyc', 'PYMODULE'), ('encodings.mac_arabic', '/System/Library/Frameworks/Python.framework/Versions/2.7/lib/python2.7/encodings/mac_arabic.pyc', 'PYMODULE'), ('Carbon.TextEdit', '/System/Library/Frameworks/Python.framework/Versions/2.7/lib/python2.7/plat-mac/Carbon/TextEdit.pyc', 'PYMODULE'), ('zipfile', '/System/Library/Frameworks/Python.framework/Versions/2.7/lib/python2.7/zipfile.pyc', 'PYMODULE'), ('repr', '/System/Library/Frameworks/Python.framework/Versions/2.7/lib/python2.7/repr.pyc', 'PYMODULE'), ('ssl', '/System/Library/Frameworks/Python.framework/Versions/2.7/lib/python2.7/ssl.pyc', 'PYMODULE'), ('StdSuites.Type_Names_Suite', '/System/Library/Frameworks/Python.framework/Versions/2.7/lib/python2.7/plat-mac/lib-scriptpackages/StdSuites/Type_Names_Suite.pyc', 'PYMODULE'), ('cookielib', '/System/Library/Frameworks/Python.framework/Versions/2.7/lib/python2.7/cookielib.pyc', 'PYMODULE'), ('_MozillaCookieJar', '/System/Library/Frameworks/Python.framework/Versions/2.7/lib/python2.7/_MozillaCookieJar.pyc', 'PYMODULE'), ('unittest.runner', '/System/Library/Frameworks/Python.framework/Versions/2.7/lib/python2.7/unittest/runner.pyc', 'PYMODULE'), ('encodings.koi8_u', '/System/Library/Frameworks/Python.framework/Versions/2.7/lib/python2.7/encodings/koi8_u.pyc', 'PYMODULE'), ('threading', '/Users/hendrik_elsner/Documents/magic/build/timagic/localpycos/threading.pyc', 'PYMODULE'), ('encodings.gb2312', '/System/Library/Frameworks/Python.framework/Versions/2.7/lib/python2.7/encodings/gb2312.pyc', 'PYMODULE'), ('encodings.cp857', '/System/Library/Frameworks/Python.framework/Versions/2.7/lib/python2.7/encodings/cp857.pyc', 'PYMODULE'), ('encodings.cp856', '/System/Library/Frameworks/Python.framework/Versions/2.7/lib/python2.7/encodings/cp856.pyc', 'PYMODULE'), ('encodings.cp855', '/System/Library/Frameworks/Python.framework/Versions/2.7/lib/python2.7/encodings/cp855.pyc', 'PYMODULE'), ('encodings.cp852', '/System/Library/Frameworks/Python.framework/Versions/2.7/lib/python2.7/encodings/cp852.pyc', 'PYMODULE'), ('encodings.cp850', '/System/Library/Frameworks/Python.framework/Versions/2.7/lib/python2.7/encodings/cp850.pyc', 'PYMODULE'), ('locale', '/System/Library/Frameworks/Python.framework/Versions/2.7/lib/python2.7/locale.pyc', 'PYMODULE'), ('encodings.cp858', '/System/Library/Frameworks/Python.framework/Versions/2.7/lib/python2.7/encodings/cp858.pyc', 'PYMODULE'), ('atexit', '/System/Library/Frameworks/Python.framework/Versions/2.7/lib/python2.7/atexit.pyc', 'PYMODULE'), ('pydoc_data', '/System/Library/Frameworks/Python.framework/Versions/2.7/lib/python2.7/pydoc_data/__init__.pyc', 'PYMODULE'), ('calendar', '/System/Library/Frameworks/Python.framework/Versions/2.7/lib/python2.7/calendar.pyc', 'PYMODULE'), ('encodings.shift_jis_2004', '/System/Library/Frameworks/Python.framework/Versions/2.7/lib/python2.7/encodings/shift_jis_2004.pyc', 'PYMODULE'), ('encodings.mac_greek', '/System/Library/Frameworks/Python.framework/Versions/2.7/lib/python2.7/encodings/mac_greek.pyc', 'PYMODULE'), ('urllib', '/System/Library/Frameworks/Python.framework/Versions/2.7/lib/python2.7/urllib.pyc', 'PYMODULE'), ('encodings.koi8_r', '/System/Library/Frameworks/Python.framework/Versions/2.7/lib/python2.7/encodings/koi8_r.pyc', 'PYMODULE'), ('formatter', '/System/Library/Frameworks/Python.framework/Versions/2.7/lib/python2.7/formatter.pyc', 'PYMODULE'), ('email', '/System/Library/Frameworks/Python.framework/Versions/2.7/lib/python2.7/email/__init__.pyc', 'PYMODULE'), ('multiprocessing.dummy.connection', '/System/Library/Frameworks/Python.framework/Versions/2.7/lib/python2.7/multiprocessing/dummy/connection.pyc', 'PYMODULE'), ('ftplib', '/System/Library/Frameworks/Python.framework/Versions/2.7/lib/python2.7/ftplib.pyc', 'PYMODULE'), ('Carbon.QuickDraw', '/System/Library/Frameworks/Python.framework/Versions/2.7/lib/python2.7/plat-mac/Carbon/QuickDraw.pyc', 'PYMODULE'), ('encodings.cp1026', '/System/Library/Frameworks/Python.framework/Versions/2.7/lib/python2.7/encodings/cp1026.pyc', 'PYMODULE'), ('encodings.undefined', '/System/Library/Frameworks/Python.framework/Versions/2.7/lib/python2.7/encodings/undefined.pyc', 'PYMODULE'), ('encodings.utf_16_le', '/System/Library/Frameworks/Python.framework/Versions/2.7/lib/python2.7/encodings/utf_16_le.pyc', 'PYMODULE'), ('ctypes', '/System/Library/Frameworks/Python.framework/Versions/2.7/lib/python2.7/ctypes/__init__.pyc', 'PYMODULE'), ('xml.dom.domreg', '/System/Library/Frameworks/Python.framework/Versions/2.7/lib/python2.7/xml/dom/domreg.pyc', 'PYMODULE'), ('Queue', '/System/Library/Frameworks/Python.framework/Versions/2.7/lib/python2.7/Queue.pyc', 'PYMODULE'), ('encodings.ptcp154', '/System/Library/Frameworks/Python.framework/Versions/2.7/lib/python2.7/encodings/ptcp154.pyc', 'PYMODULE'), ('StdSuites.QuickDraw_Graphics_Suite', '/System/Library/Frameworks/Python.framework/Versions/2.7/lib/python2.7/plat-mac/lib-scriptpackages/StdSuites/QuickDraw_Graphics_Suite.pyc', 'PYMODULE'), ('distutils.spawn', '/System/Library/Frameworks/Python.framework/Versions/2.7/lib/python2.7/distutils/spawn.pyc', 'PYMODULE'), ('opcode', '/System/Library/Frameworks/Python.framework/Versions/2.7/lib/python2.7/opcode.pyc', 'PYMODULE'), ('pdb', '/System/Library/Frameworks/Python.framework/Versions/2.7/lib/python2.7/pdb.pyc', 'PYMODULE'), ('unittest', '/System/Library/Frameworks/Python.framework/Versions/2.7/lib/python2.7/unittest/__init__.pyc', 'PYMODULE'), ('encodings.bz2_codec', '/Users/hendrik_elsner/Documents/magic/build/timagic/localpycos/encodings/bz2_codec.pyc', 'PYMODULE'), ('dummy_thread', '/System/Library/Frameworks/Python.framework/Versions/2.7/lib/python2.7/dummy_thread.pyc', 'PYMODULE'), ('platform', '/Users/hendrik_elsner/Documents/magic/build/timagic/localpycos/platform.pyc', 'PYMODULE'), ('encodings.unicode_escape', '/System/Library/Frameworks/Python.framework/Versions/2.7/lib/python2.7/encodings/unicode_escape.pyc', 'PYMODULE'), ('encodings.mac_croatian', '/System/Library/Frameworks/Python.framework/Versions/2.7/lib/python2.7/encodings/mac_croatian.pyc', 'PYMODULE'), ('pkgutil', '/System/Library/Frameworks/Python.framework/Versions/2.7/lib/python2.7/pkgutil.pyc', 'PYMODULE'), ('Carbon.Menu', '/System/Library/Frameworks/Python.framework/Versions/2.7/lib/python2.7/plat-mac/Carbon/Menu.pyc', 'PYMODULE'), ('sre_constants', '/System/Library/Frameworks/Python.framework/Versions/2.7/lib/python2.7/sre_constants.pyc', 'PYMODULE'), ('encodings.utf_32', '/System/Library/Frameworks/Python.framework/Versions/2.7/lib/python2.7/encodings/utf_32.pyc', 'PYMODULE'), ('xml.dom.NodeFilter', '/System/Library/Frameworks/Python.framework/Versions/2.7/lib/python2.7/xml/dom/NodeFilter.pyc', 'PYMODULE'), ('encodings.hp_roman8', '/System/Library/Frameworks/Python.framework/Versions/2.7/lib/python2.7/encodings/hp_roman8.pyc', 'PYMODULE'), ('Finder.Files', '/System/Library/Frameworks/Python.framework/Versions/2.7/lib/python2.7/plat-mac/lib-scriptpackages/Finder/Files.pyc', 'PYMODULE'), ('nturl2path', '/System/Library/Frameworks/Python.framework/Versions/2.7/lib/python2.7/nturl2path.pyc', 'PYMODULE'), ('encodings.iso8859_16', '/System/Library/Frameworks/Python.framework/Versions/2.7/lib/python2.7/encodings/iso8859_16.pyc', 'PYMODULE'), ('encodings.iso8859_15', '/System/Library/Frameworks/Python.framework/Versions/2.7/lib/python2.7/encodings/iso8859_15.pyc', 'PYMODULE'), ('encodings.iso8859_14', '/System/Library/Frameworks/Python.framework/Versions/2.7/lib/python2.7/encodings/iso8859_14.pyc', 'PYMODULE'), ('encodings.iso8859_13', '/System/Library/Frameworks/Python.framework/Versions/2.7/lib/python2.7/encodings/iso8859_13.pyc', 'PYMODULE'), ('encodings.iso8859_11', '/System/Library/Frameworks/Python.framework/Versions/2.7/lib/python2.7/encodings/iso8859_11.pyc', 'PYMODULE'), ('encodings.iso8859_10', '/System/Library/Frameworks/Python.framework/Versions/2.7/lib/python2.7/encodings/iso8859_10.pyc', 'PYMODULE'), ('copy_reg', '/System/Library/Frameworks/Python.framework/Versions/2.7/lib/python2.7/copy_reg.pyc', 'PYMODULE'), ('site', '/Library/Python/2.7/site-packages/PyInstaller/fake/fake-site.pyc', 'PYMODULE'), ('email.mime.message', '/System/Library/Frameworks/Python.framework/Versions/2.7/lib/python2.7/email/mime/message.pyc', 'PYMODULE'), ('io', '/System/Library/Frameworks/Python.framework/Versions/2.7/lib/python2.7/io.pyc', 'PYMODULE'), ('sndhdr', '/System/Library/Frameworks/Python.framework/Versions/2.7/lib/python2.7/sndhdr.pyc', 'PYMODULE'), ('encodings.utf_32_be', '/System/Library/Frameworks/Python.framework/Versions/2.7/lib/python2.7/encodings/utf_32_be.pyc', 'PYMODULE'), ('encodings.hex_codec', '/Users/hendrik_elsner/Documents/magic/build/timagic/localpycos/encodings/hex_codec.pyc', 'PYMODULE'), ('Carbon.CarbonEvents', '/Users/hendrik_elsner/Documents/magic/build/timagic/localpycos/Carbon/CarbonEvents.pyc', 'PYMODULE'), ('multiprocessing.queues', '/System/Library/Frameworks/Python.framework/Versions/2.7/lib/python2.7/multiprocessing/queues.pyc', 'PYMODULE'), ('multiprocessing.synchronize', '/System/Library/Frameworks/Python.framework/Versions/2.7/lib/python2.7/multiprocessing/synchronize.pyc', 'PYMODULE'), ('rfc822', '/System/Library/Frameworks/Python.framework/Versions/2.7/lib/python2.7/rfc822.pyc', 'PYMODULE'), ('encodings.idna', '/System/Library/Frameworks/Python.framework/Versions/2.7/lib/python2.7/encodings/idna.pyc', 'PYMODULE'), ('multiprocessing.heap', '/System/Library/Frameworks/Python.framework/Versions/2.7/lib/python2.7/multiprocessing/heap.pyc', 'PYMODULE'), ('xmllib', '/System/Library/Frameworks/Python.framework/Versions/2.7/lib/python2.7/xmllib.pyc', 'PYMODULE'), ('xml.dom.xmlbuilder', '/Users/hendrik_elsner/Documents/magic/build/timagic/localpycos/xml/dom/xmlbuilder.pyc', 'PYMODULE'), ('difflib', '/Users/hendrik_elsner/Documents/magic/build/timagic/localpycos/difflib.pyc', 'PYMODULE'), ('distutils.errors', '/System/Library/Frameworks/Python.framework/Versions/2.7/lib/python2.7/distutils/errors.pyc', 'PYMODULE'), ('urlparse', '/System/Library/Frameworks/Python.framework/Versions/2.7/lib/python2.7/urlparse.pyc', 'PYMODULE'), ('StdSuites.Standard_Suite', '/System/Library/Frameworks/Python.framework/Versions/2.7/lib/python2.7/plat-mac/lib-scriptpackages/StdSuites/Standard_Suite.pyc', 'PYMODULE'), ('encodings.cp950', '/System/Library/Frameworks/Python.framework/Versions/2.7/lib/python2.7/encodings/cp950.pyc', 'PYMODULE'), ('gzip', '/System/Library/Frameworks/Python.framework/Versions/2.7/lib/python2.7/gzip.pyc', 'PYMODULE'), ('heapq', '/System/Library/Frameworks/Python.framework/Versions/2.7/lib/python2.7/heapq.pyc', 'PYMODULE'), ('distutils', '/System/Library/Frameworks/Python.framework/Versions/2.7/lib/python2.7/distutils/__init__.pyc', 'PYMODULE'), ('encodings.johab', '/System/Library/Frameworks/Python.framework/Versions/2.7/lib/python2.7/encodings/johab.pyc', 'PYMODULE'), ('unittest.case', '/System/Library/Frameworks/Python.framework/Versions/2.7/lib/python2.7/unittest/case.pyc', 'PYMODULE'), ('xml.dom.expatbuilder', '/System/Library/Frameworks/Python.framework/Versions/2.7/lib/python2.7/xml/dom/expatbuilder.pyc', 'PYMODULE'), ('aifc', '/System/Library/Frameworks/Python.framework/Versions/2.7/lib/python2.7/aifc.pyc', 'PYMODULE'), ('Finder.Type_Definitions', '/System/Library/Frameworks/Python.framework/Versions/2.7/lib/python2.7/plat-mac/lib-scriptpackages/Finder/Type_Definitions.pyc', 'PYMODULE'), ('email.mime', '/System/Library/Frameworks/Python.framework/Versions/2.7/lib/python2.7/email/mime/__init__.pyc', 'PYMODULE'), ('struct', '/System/Library/Frameworks/Python.framework/Versions/2.7/lib/python2.7/struct.pyc', 'PYMODULE'), ('collections', '/System/Library/Frameworks/Python.framework/Versions/2.7/lib/python2.7/collections.pyc', 'PYMODULE'), ('encodings.utf_32_le', '/System/Library/Frameworks/Python.framework/Versions/2.7/lib/python2.7/encodings/utf_32_le.pyc', 'PYMODULE'), ('Finder.Containers_and_folders', '/System/Library/Frameworks/Python.framework/Versions/2.7/lib/python2.7/plat-mac/lib-scriptpackages/Finder/Containers_and_folders.pyc', 'PYMODULE'), ('xml.dom.minicompat', '/System/Library/Frameworks/Python.framework/Versions/2.7/lib/python2.7/xml/dom/minicompat.pyc', 'PYMODULE'), ('unittest.main', '/System/Library/Frameworks/Python.framework/Versions/2.7/lib/python2.7/unittest/main.pyc', 'PYMODULE'), ('multiprocessing.forking', '/System/Library/Frameworks/Python.framework/Versions/2.7/lib/python2.7/multiprocessing/forking.pyc', 'PYMODULE'), ('PySide', '/Users/hendrik_elsner/Documents/magic/build/timagic/localpycos/PySide/__init__.pyc', 'PYMODULE'), ('encodings.euc_kr', '/System/Library/Frameworks/Python.framework/Versions/2.7/lib/python2.7/encodings/euc_kr.pyc', 'PYMODULE'), ('multiprocessing.dummy', '/System/Library/Frameworks/Python.framework/Versions/2.7/lib/python2.7/multiprocessing/dummy/__init__.pyc', 'PYMODULE'), ('textwrap', '/System/Library/Frameworks/Python.framework/Versions/2.7/lib/python2.7/textwrap.pyc', 'PYMODULE'), ('encodings.cp037', '/System/Library/Frameworks/Python.framework/Versions/2.7/lib/python2.7/encodings/cp037.pyc', 'PYMODULE'), ('encodings.big5hkscs', '/System/Library/Frameworks/Python.framework/Versions/2.7/lib/python2.7/encodings/big5hkscs.pyc', 'PYMODULE'), ('encodings.cp862', '/System/Library/Frameworks/Python.framework/Versions/2.7/lib/python2.7/encodings/cp862.pyc', 'PYMODULE'), ('encodings.mac_romanian', '/System/Library/Frameworks/Python.framework/Versions/2.7/lib/python2.7/encodings/mac_romanian.pyc', 'PYMODULE'), ('quopri', '/System/Library/Frameworks/Python.framework/Versions/2.7/lib/python2.7/quopri.pyc', 'PYMODULE'), ('distutils.log', '/System/Library/Frameworks/Python.framework/Versions/2.7/lib/python2.7/distutils/log.pyc', 'PYMODULE'), ('multiprocessing.reduction', '/System/Library/Frameworks/Python.framework/Versions/2.7/lib/python2.7/multiprocessing/reduction.pyc', 'PYMODULE'), ('stat', '/System/Library/Frameworks/Python.framework/Versions/2.7/lib/python2.7/stat.pyc', 'PYMODULE'), ('xml.parsers.expat', '/System/Library/Frameworks/Python.framework/Versions/2.7/lib/python2.7/xml/parsers/expat.pyc', 'PYMODULE'), ('encodings.mac_iceland', '/System/Library/Frameworks/Python.framework/Versions/2.7/lib/python2.7/encodings/mac_iceland.pyc', 'PYMODULE'), ('macresource', '/System/Library/Frameworks/Python.framework/Versions/2.7/lib/python2.7/plat-mac/macresource.pyc', 'PYMODULE'), ('encodings.iso2022_jp', '/System/Library/Frameworks/Python.framework/Versions/2.7/lib/python2.7/encodings/iso2022_jp.pyc', 'PYMODULE'), ('email.errors', '/System/Library/Frameworks/Python.framework/Versions/2.7/lib/python2.7/email/errors.pyc', 'PYMODULE'), ('multiprocessing.managers', '/System/Library/Frameworks/Python.framework/Versions/2.7/lib/python2.7/multiprocessing/managers.pyc', 'PYMODULE'), ('encodings.ascii', '/System/Library/Frameworks/Python.framework/Versions/2.7/lib/python2.7/encodings/ascii.pyc', 'PYMODULE'), ('UserDict', '/System/Library/Frameworks/Python.framework/Versions/2.7/lib/python2.7/UserDict.pyc', 'PYMODULE'), ('inspect', '/System/Library/Frameworks/Python.framework/Versions/2.7/lib/python2.7/inspect.pyc', 'PYMODULE'), ('encodings.mac_farsi', '/System/Library/Frameworks/Python.framework/Versions/2.7/lib/python2.7/encodings/mac_farsi.pyc', 'PYMODULE'), ('Carbon.Qd', '/System/Library/Frameworks/Python.framework/Versions/2.7/lib/python2.7/plat-mac/Carbon/Qd.pyc', 'PYMODULE'), ('unittest.loader', '/System/Library/Frameworks/Python.framework/Versions/2.7/lib/python2.7/unittest/loader.pyc', 'PYMODULE'), ('socket', '/System/Library/Frameworks/Python.framework/Versions/2.7/lib/python2.7/socket.pyc', 'PYMODULE'), ('imghdr', '/System/Library/Frameworks/Python.framework/Versions/2.7/lib/python2.7/imghdr.pyc', 'PYMODULE'), ('encodings.tis_620', '/System/Library/Frameworks/Python.framework/Versions/2.7/lib/python2.7/encodings/tis_620.pyc', 'PYMODULE'), ('os', '/System/Library/Frameworks/Python.framework/Versions/2.7/lib/python2.7/os.pyc', 'PYMODULE'), ('__future__', '/System/Library/Frameworks/Python.framework/Versions/2.7/lib/python2.7/__future__.pyc', 'PYMODULE'), ('xml.sax.xmlreader', '/System/Library/Frameworks/Python.framework/Versions/2.7/lib/python2.7/xml/sax/xmlreader.pyc', 'PYMODULE'), ('xml.dom.pulldom', '/System/Library/Frameworks/Python.framework/Versions/2.7/lib/python2.7/xml/dom/pulldom.pyc', 'PYMODULE'), ('_threading_local', '/System/Library/Frameworks/Python.framework/Versions/2.7/lib/python2.7/_threading_local.pyc', 'PYMODULE'), ('encodings.mac_roman', '/System/Library/Frameworks/Python.framework/Versions/2.7/lib/python2.7/encodings/mac_roman.pyc', 'PYMODULE'), ('encodings.cp437', '/System/Library/Frameworks/Python.framework/Versions/2.7/lib/python2.7/encodings/cp437.pyc', 'PYMODULE'), ('multiprocessing.connection', '/Users/hendrik_elsner/Documents/magic/build/timagic/localpycos/multiprocessing/connection.pyc', 'PYMODULE'), ('EasyDialogs', '/System/Library/Frameworks/Python.framework/Versions/2.7/lib/python2.7/plat-mac/EasyDialogs.pyc', 'PYMODULE'), ('email._parseaddr', '/System/Library/Frameworks/Python.framework/Versions/2.7/lib/python2.7/email/_parseaddr.pyc', 'PYMODULE'), ('xml.sax.handler', '/System/Library/Frameworks/Python.framework/Versions/2.7/lib/python2.7/xml/sax/handler.pyc', 'PYMODULE'), ('pyi_os_path', '/Library/Python/2.7/site-packages/PyInstaller/loader/pyi_os_path.pyc', 'PYMODULE'), ('_sysconfigdata', '/System/Library/Frameworks/Python.framework/Versions/2.7/lib/python2.7/_sysconfigdata.pyc', 'PYMODULE'), ('uu', '/System/Library/Frameworks/Python.framework/Versions/2.7/lib/python2.7/uu.pyc', 'PYMODULE'), ('xml.dom.minidom', '/System/Library/Frameworks/Python.framework/Versions/2.7/lib/python2.7/xml/dom/minidom.pyc', 'PYMODULE'), ('encodings.cp500', '/System/Library/Frameworks/Python.framework/Versions/2.7/lib/python2.7/encodings/cp500.pyc', 'PYMODULE'), ('encodings.gb18030', '/System/Library/Frameworks/Python.framework/Versions/2.7/lib/python2.7/encodings/gb18030.pyc', 'PYMODULE'), ('email.mime.base', '/System/Library/Frameworks/Python.framework/Versions/2.7/lib/python2.7/email/mime/base.pyc', 'PYMODULE'), ('Carbon.Evt', '/System/Library/Frameworks/Python.framework/Versions/2.7/lib/python2.7/plat-mac/Carbon/Evt.pyc', 'PYMODULE'), ('mimetools', '/System/Library/Frameworks/Python.framework/Versions/2.7/lib/python2.7/mimetools.pyc', 'PYMODULE'), ('xml.sax', '/System/Library/Frameworks/Python.framework/Versions/2.7/lib/python2.7/xml/sax/__init__.pyc', 'PYMODULE'), ('Carbon.Appearance', '/System/Library/Frameworks/Python.framework/Versions/2.7/lib/python2.7/plat-mac/Carbon/Appearance.pyc', 'PYMODULE'), ('contextlib', '/System/Library/Frameworks/Python.framework/Versions/2.7/lib/python2.7/contextlib.pyc', 'PYMODULE'), ('email.mime.nonmultipart', '/System/Library/Frameworks/Python.framework/Versions/2.7/lib/python2.7/email/mime/nonmultipart.pyc', 'PYMODULE'), ('Carbon.ControlAccessor', '/System/Library/Frameworks/Python.framework/Versions/2.7/lib/python2.7/plat-mac/Carbon/ControlAccessor.pyc', 'PYMODULE'), ('Carbon.Ctl', '/System/Library/Frameworks/Python.framework/Versions/2.7/lib/python2.7/plat-mac/Carbon/Ctl.pyc', 'PYMODULE'), ('_strptime', '/System/Library/Frameworks/Python.framework/Versions/2.7/lib/python2.7/_strptime.pyc', 'PYMODULE'), ('gettext', '/System/Library/Frameworks/Python.framework/Versions/2.7/lib/python2.7/gettext.pyc', 'PYMODULE'), ('_abcoll', '/System/Library/Frameworks/Python.framework/Versions/2.7/lib/python2.7/_abcoll.pyc', 'PYMODULE'), ('getopt', '/System/Library/Frameworks/Python.framework/Versions/2.7/lib/python2.7/getopt.pyc', 'PYMODULE'), ('email.mime.audio', '/System/Library/Frameworks/Python.framework/Versions/2.7/lib/python2.7/email/mime/audio.pyc', 'PYMODULE'), ('Carbon.Dlg', '/System/Library/Frameworks/Python.framework/Versions/2.7/lib/python2.7/plat-mac/Carbon/Dlg.pyc', 'PYMODULE'), ('xml.sax._exceptions', '/System/Library/Frameworks/Python.framework/Versions/2.7/lib/python2.7/xml/sax/_exceptions.pyc', 'PYMODULE'), ('genericpath', '/System/Library/Frameworks/Python.framework/Versions/2.7/lib/python2.7/genericpath.pyc', 'PYMODULE'), ('mimetypes', '/System/Library/Frameworks/Python.framework/Versions/2.7/lib/python2.7/mimetypes.pyc', 'PYMODULE'), ('urllib2', '/System/Library/Frameworks/Python.framework/Versions/2.7/lib/python2.7/urllib2.pyc', 'PYMODULE'), ('unittest.signals', '/System/Library/Frameworks/Python.framework/Versions/2.7/lib/python2.7/unittest/signals.pyc', 'PYMODULE'), ('email.utils', '/System/Library/Frameworks/Python.framework/Versions/2.7/lib/python2.7/email/utils.pyc', 'PYMODULE'), ('xml.dom', '/System/Library/Frameworks/Python.framework/Versions/2.7/lib/python2.7/xml/dom/__init__.pyc', 'PYMODULE'), ('_builtinSuites', '/System/Library/Frameworks/Python.framework/Versions/2.7/lib/python2.7/plat-mac/lib-scriptpackages/_builtinSuites/__init__.pyc', 'PYMODULE'), ('encodings.raw_unicode_escape', '/System/Library/Frameworks/Python.framework/Versions/2.7/lib/python2.7/encodings/raw_unicode_escape.pyc', 'PYMODULE'), ('encodings.mbcs', '/System/Library/Frameworks/Python.framework/Versions/2.7/lib/python2.7/encodings/mbcs.pyc', 'PYMODULE'), ('distutils.text_file', '/System/Library/Frameworks/Python.framework/Versions/2.7/lib/python2.7/distutils/text_file.pyc', 'PYMODULE'), ('encodings.cp1006', '/System/Library/Frameworks/Python.framework/Versions/2.7/lib/python2.7/encodings/cp1006.pyc', 'PYMODULE'), ('StdSuites.Macintosh_Connectivity_Clas', '/System/Library/Frameworks/Python.framework/Versions/2.7/lib/python2.7/plat-mac/lib-scriptpackages/StdSuites/Macintosh_Connectivity_Clas.pyc', 'PYMODULE')],
 [('_Evt', '/System/Library/Frameworks/Python.framework/Versions/2.7/lib/python2.7/lib-dynload/_Evt.so', 'EXTENSION'), ('datetime', '/System/Library/Frameworks/Python.framework/Versions/2.7/lib/python2.7/lib-dynload/datetime.so', 'EXTENSION'), ('_codecs_tw', '/System/Library/Frameworks/Python.framework/Versions/2.7/lib/python2.7/lib-dynload/_codecs_tw.so', 'EXTENSION'), ('_Res', '/System/Library/Frameworks/Python.framework/Versions/2.7/lib/python2.7/lib-dynload/_Res.so', 'EXTENSION'), ('select', '/System/Library/Frameworks/Python.framework/Versions/2.7/lib/python2.7/lib-dynload/select.so', 'EXTENSION'), ('_heapq', '/System/Library/Frameworks/Python.framework/Versions/2.7/lib/python2.7/lib-dynload/_heapq.so', 'EXTENSION'), ('binascii', '/System/Library/Frameworks/Python.framework/Versions/2.7/lib/python2.7/lib-dynload/binascii.so', 'EXTENSION'), ('cPickle', '/System/Library/Frameworks/Python.framework/Versions/2.7/lib/python2.7/lib-dynload/cPickle.so', 'EXTENSION'), ('_Qd', '/System/Library/Frameworks/Python.framework/Versions/2.7/lib/python2.7/lib-dynload/_Qd.so', 'EXTENSION'), ('unicodedata', '/System/Library/Frameworks/Python.framework/Versions/2.7/lib/python2.7/lib-dynload/unicodedata.so', 'EXTENSION'), ('_File', '/System/Library/Frameworks/Python.framework/Versions/2.7/lib/python2.7/lib-dynload/_File.so', 'EXTENSION'), ('_bisect', '/System/Library/Frameworks/Python.framework/Versions/2.7/lib/python2.7/lib-dynload/_bisect.so', 'EXTENSION'), ('strop', '/System/Library/Frameworks/Python.framework/Versions/2.7/lib/python2.7/lib-dynload/strop.so', 'EXTENSION'), ('_AE', '/System/Library/Frameworks/Python.framework/Versions/2.7/lib/python2.7/lib-dynload/_AE.so', 'EXTENSION'), ('_codecs_iso2022', '/System/Library/Frameworks/Python.framework/Versions/2.7/lib/python2.7/lib-dynload/_codecs_iso2022.so', 'EXTENSION'), ('cStringIO', '/System/Library/Frameworks/Python.framework/Versions/2.7/lib/python2.7/lib-dynload/cStringIO.so', 'EXTENSION'), ('math', '/System/Library/Frameworks/Python.framework/Versions/2.7/lib/python2.7/lib-dynload/math.so', 'EXTENSION'), ('_Win', '/System/Library/Frameworks/Python.framework/Versions/2.7/lib/python2.7/lib-dynload/_Win.so', 'EXTENSION'), ('_scproxy', '/System/Library/Frameworks/Python.framework/Versions/2.7/lib/python2.7/lib-dynload/_scproxy.so', 'EXTENSION'), ('_locale', '/System/Library/Frameworks/Python.framework/Versions/2.7/lib/python2.7/lib-dynload/_locale.so', 'EXTENSION'), ('PySide.QtCore', '/Library/Python/2.7/site-packages/PySide/QtCore.so', 'EXTENSION'), ('_collections', '/System/Library/Frameworks/Python.framework/Versions/2.7/lib/python2.7/lib-dynload/_collections.so', 'EXTENSION'), ('array', '/System/Library/Frameworks/Python.framework/Versions/2.7/lib/python2.7/lib-dynload/array.so', 'EXTENSION'), ('_codecs_hk', '/System/Library/Frameworks/Python.framework/Versions/2.7/lib/python2.7/lib-dynload/_codecs_hk.so', 'EXTENSION'), ('_hashlib', '/System/Library/Frameworks/Python.framework/Versions/2.7/lib/python2.7/lib-dynload/_hashlib.so', 'EXTENSION'), ('bz2', '/System/Library/Frameworks/Python.framework/Versions/2.7/lib/python2.7/lib-dynload/bz2.so', 'EXTENSION'), ('_ssl', '/System/Library/Frameworks/Python.framework/Versions/2.7/lib/python2.7/lib-dynload/_ssl.so', 'EXTENSION'), ('_io', '/System/Library/Frameworks/Python.framework/Versions/2.7/lib/python2.7/lib-dynload/_io.so', 'EXTENSION'), ('_Dlg', '/System/Library/Frameworks/Python.framework/Versions/2.7/lib/python2.7/lib-dynload/_Dlg.so', 'EXTENSION'), ('fcntl', '/System/Library/Frameworks/Python.framework/Versions/2.7/lib/python2.7/lib-dynload/fcntl.so', 'EXTENSION'), ('_ctypes', '/System/Library/Frameworks/Python.framework/Versions/2.7/lib/python2.7/lib-dynload/_ctypes.so', 'EXTENSION'), ('_Ctl', '/System/Library/Frameworks/Python.framework/Versions/2.7/lib/python2.7/lib-dynload/_Ctl.so', 'EXTENSION'), ('itertools', '/System/Library/Frameworks/Python.framework/Versions/2.7/lib/python2.7/lib-dynload/itertools.so', 'EXTENSION'), ('termios', '/System/Library/Frameworks/Python.framework/Versions/2.7/lib/python2.7/lib-dynload/termios.so', 'EXTENSION'), ('_codecs_kr', '/System/Library/Frameworks/Python.framework/Versions/2.7/lib/python2.7/lib-dynload/_codecs_kr.so', 'EXTENSION'), ('zlib', '/System/Library/Frameworks/Python.framework/Versions/2.7/lib/python2.7/lib-dynload/zlib.so', 'EXTENSION'), ('Nav', '/System/Library/Frameworks/Python.framework/Versions/2.7/lib/python2.7/lib-dynload/Nav.so', 'EXTENSION'), ('pyexpat', '/System/Library/Frameworks/Python.framework/Versions/2.7/lib/python2.7/lib-dynload/pyexpat.so', 'EXTENSION'), ('audioop', '/System/Library/Frameworks/Python.framework/Versions/2.7/lib/python2.7/lib-dynload/audioop.so', 'EXTENSION'), ('mmap', '/System/Library/Frameworks/Python.framework/Versions/2.7/lib/python2.7/lib-dynload/mmap.so', 'EXTENSION'), ('MacOS', '/System/Library/Frameworks/Python.framework/Versions/2.7/lib/python2.7/lib-dynload/MacOS.so', 'EXTENSION'), ('PySide.QtGui', '/Library/Python/2.7/site-packages/PySide/QtGui.so', 'EXTENSION'), ('_multiprocessing', '/System/Library/Frameworks/Python.framework/Versions/2.7/lib/python2.7/lib-dynload/_multiprocessing.so', 'EXTENSION'), ('_functools', '/System/Library/Frameworks/Python.framework/Versions/2.7/lib/python2.7/lib-dynload/_functools.so', 'EXTENSION'), ('_multibytecodec', '/System/Library/Frameworks/Python.framework/Versions/2.7/lib/python2.7/lib-dynload/_multibytecodec.so', 'EXTENSION'), ('operator', '/System/Library/Frameworks/Python.framework/Versions/2.7/lib/python2.7/lib-dynload/operator.so', 'EXTENSION'), ('_codecs_jp', '/System/Library/Frameworks/Python.framework/Versions/2.7/lib/python2.7/lib-dynload/_codecs_jp.so', 'EXTENSION'), ('_socket', '/System/Library/Frameworks/Python.framework/Versions/2.7/lib/python2.7/lib-dynload/_socket.so', 'EXTENSION'), ('_codecs_cn', '/System/Library/Frameworks/Python.framework/Versions/2.7/lib/python2.7/lib-dynload/_codecs_cn.so', 'EXTENSION'), ('gestalt', '/System/Library/Frameworks/Python.framework/Versions/2.7/lib/python2.7/lib-dynload/gestalt.so', 'EXTENSION'), ('_struct', '/System/Library/Frameworks/Python.framework/Versions/2.7/lib/python2.7/lib-dynload/_struct.so', 'EXTENSION'), ('_random', '/System/Library/Frameworks/Python.framework/Versions/2.7/lib/python2.7/lib-dynload/_random.so', 'EXTENSION'), ('_Menu', '/System/Library/Frameworks/Python.framework/Versions/2.7/lib/python2.7/lib-dynload/_Menu.so', 'EXTENSION'), ('grp', '/System/Library/Frameworks/Python.framework/Versions/2.7/lib/python2.7/lib-dynload/grp.so', 'EXTENSION'), ('readline', '/System/Library/Frameworks/Python.framework/Versions/2.7/lib/python2.7/lib-dynload/readline.so', 'EXTENSION'), ('time', '/System/Library/Frameworks/Python.framework/Versions/2.7/lib/python2.7/lib-dynload/time.so', 'EXTENSION'), ('QtCore', '/Library/Frameworks/QtCore.framework/Versions/4/QtCore', 'BINARY'), ('QtGui', '/Library/Frameworks/QtGui.framework/Versions/4/QtGui', 'BINARY'), ('Python', '/System/Library/Frameworks/Python.framework/Versions/2.7/Python', 'BINARY')],
 [],
 [('include/python2.7/pyconfig.h', '/System/Library/Frameworks/Python.framework/Versions/2.7/include/python2.7/pyconfig.h', 'DATA'), ('lib/python2.7/config/Makefile', '/System/Library/Frameworks/Python.framework/Versions/2.7/lib/python2.7/config/Makefile', 'DATA'), ('qt_menu.nib/classes.nib', '/Library/Frameworks/QtGui.framework/Resources/qt_menu.nib/classes.nib', 'DATA'), ('qt_menu.nib/info.nib', '/Library/Frameworks/QtGui.framework/Resources/qt_menu.nib/info.nib', 'DATA'), ('qt_menu.nib/keyedobjects.nib', '/Library/Frameworks/QtGui.framework/Resources/qt_menu.nib/keyedobjects.nib', 'DATA')],
 ['codecs', 'encodings'])
